Baxter microbiome example
…
## [1] 490  27

names(meta)

##  [1] "sample"       "fit_result"   "Site"         "Dx_Bin"       "dx"          
##  [6] "Hx_Prev"      "Hx_of_Polyps" "Age"          "Gender"       "Smoke"       
## [11] "Diabetic"     "Hx_Fam_CRC"   "Height"       "Weight"       "BMI"         
## [16] "White"        "Native"       "Black"        "Pacific"      "Asian"       
## [21] "Other"        "Ethnic"       "NSAID"        "Abx"          "Diabetes_Med"
## [26] "stage"        "Location"

meta

## # A tibble: 490 × 27
##     sample fit_result Site  Dx_Bin dx    Hx_Prev Hx_of_Polyps   Age Gender Smoke
##      <int>      <int> <chr> <chr>  <chr>   <int>        <int> <int> <chr>  <int>
##  1 2003650          0 UMic… HighR… norm…       0            1    64 m         NA
##  2 2005650          0 UMic… HighR… norm…       0            1    61 m          0
##  3 2007660         26 UMic… HighR… norm…       0            1    47 f          0
##  4 2009650         10 Toro… Adeno… aden…       0            1    81 f          1
##  5 2013660          0 UMic… Normal norm…       0            0    44 f          0
##  6 2015650          0 Dana… HighR… norm…       0            1    51 f          1
##  7 2017660          7 Dana… Cancer canc…       1            1    78 m          1
##  8 2019651         19 UMic… Normal norm…       0            0    59 m          0
##  9 2023680          0 Dana… HighR… norm…       1            1    63 f          1
## 10 2025653       1509 UMic… Cancer canc…       1            1    67 m          1
## # ℹ 480 more rows
## # ℹ 17 more variables: Diabetic <int>, Hx_Fam_CRC <int>, Height <int>,
## #   Weight <int>, BMI <dbl>, White <int>, Native <int>, Black <int>,
## #   Pacific <int>, Asian <int>, Other <int>, Ethnic <int>, NSAID <int>,
## #   Abx <int>, Diabetes_Med <int>, stage <int>, Location <chr>
…
